^D:\REPOSITORIES\GAM-415-BINH-PHAM\SDL SETUP\CONSOLECALCULATOR\DEBUG\MAIN.OBJ
/OUT:"D:\REPOSITORIES\GAM-415-BINH-PHAM\SDL SETUP\DEBUG\CONSOLECALCULATOR.EXE" /INCREMENTAL /NOLOGO KERNEL32.LIB USER32.LIB GDI32.LIB WINSPOOL.LIB COMDLG32.LIB ADVAPI32.LIB SHELL32.LIB OLE32.LIB OLEAUT32.LIB UUID.LIB ODBC32.LIB ODBCCP32.LIB /MANIFEST /MANIFESTUAC:"level='asInvoker' uiAccess='false'" /manifest:embed /DEBUG:FASTLINK /PDB:"D:\REPOSITORIES\GAM-415-BINH-PHAM\SDL SETUP\DEBUG\CONSOLECALCULATOR.PDB" /SUBSYSTEM:CONSOLE /TLBID:1 /DYNAMICBASE /NXCOMPAT /IMPLIB:"D:\REPOSITORIES\GAM-415-BINH-PHAM\SDL SETUP\DEBUG\CONSOLECALCULATOR.LIB" /MACHINE:X86 DEBUG\MAIN.OBJ
^C:\USERS\ALFRED\DESKTOP\GAM 415 - BINH PHAM\GAM-415-BINH-PHAM\SDL SETUP\CONSOLECALCULATOR\DEBUG\MAIN.OBJ
/OUT:"C:\USERS\ALFRED\DESKTOP\GAM 415 - BINH PHAM\GAM-415-BINH-PHAM\SDL SETUP\DEBUG\CONSOLECALCULATOR.EXE" /INCREMENTAL /NOLOGO KERNEL32.LIB USER32.LIB GDI32.LIB WINSPOOL.LIB COMDLG32.LIB ADVAPI32.LIB SHELL32.LIB OLE32.LIB OLEAUT32.LIB UUID.LIB ODBC32.LIB ODBCCP32.LIB /MANIFEST /MANIFESTUAC:"level='asInvoker' uiAccess='false'" /manifest:embed /DEBUG:FASTLINK /PDB:"C:\USERS\ALFRED\DESKTOP\GAM 415 - BINH PHAM\GAM-415-BINH-PHAM\SDL SETUP\DEBUG\CONSOLECALCULATOR.PDB" /SUBSYSTEM:CONSOLE /TLBID:1 /DYNAMICBASE /NXCOMPAT /IMPLIB:"C:\USERS\ALFRED\DESKTOP\GAM 415 - BINH PHAM\GAM-415-BINH-PHAM\SDL SETUP\DEBUG\CONSOLECALCULATOR.LIB" /MACHINE:X86 DEBUG\MAIN.OBJ
