^C:\USERS\BINNIE\DOCUMENTS\SCHOOL\CLASSES\LAST SEMESTER\BINH'S GAM-415 REPO\GAM-415-BINH-PHAM\SDL SETUP\AUDIOGENERATOR\SAMPLEGENERATORS.CPP
C:\USERS\BINNIE\DOCUMENTS\SCHOOL\CLASSES\LAST SEMESTER\BINH'S GAM-415 REPO\GAM-415-BINH-PHAM\SDL2-2.0.10\INCLUDE\SDL.H
C:\USERS\BINNIE\DOCUMENTS\SCHOOL\CLASSES\LAST SEMESTER\BINH'S GAM-415 REPO\GAM-415-BINH-PHAM\SDL2-2.0.10\INCLUDE\SDL_MAIN.H
C:\USERS\BINNIE\DOCUMENTS\SCHOOL\CLASSES\LAST SEMESTER\BINH'S GAM-415 REPO\GAM-415-BINH-PHAM\SDL2-2.0.10\INCLUDE\SDL_STDINC.H
C:\USERS\BINNIE\DOCUMENTS\SCHOOL\CLASSES\LAST SEMESTER\BINH'S GAM-415 REPO\GAM-415-BINH-PHAM\SDL2-2.0.10\INCLUDE\SDL_CONFIG.H
C:\USERS\BINNIE\DOCUMENTS\SCHOOL\CLASSES\LAST SEMESTER\BINH'S GAM-415 REPO\GAM-415-BINH-PHAM\SDL2-2.0.10\INCLUDE\SDL_PLATFORM.H
C:\PROGRAM FILES (X86)\WINDOWS KITS\10\INCLUDE\10.0.18362.0\SHARED\WINAPIFAMILY.H
C:\PROGRAM FILES (X86)\WINDOWS KITS\10\INCLUDE\10.0.18362.0\SHARED\WINPACKAGEFAMILY.H
C:\USERS\BINNIE\DOCUMENTS\SCHOOL\CLASSES\LAST SEMESTER\BINH'S GAM-415 REPO\GAM-415-BINH-PHAM\SDL2-2.0.10\INCLUDE\BEGIN_CODE.H
C:\USERS\BINNIE\DOCUMENTS\SCHOOL\CLASSES\LAST SEMESTER\BINH'S GAM-415 REPO\GAM-415-BINH-PHAM\SDL2-2.0.10\INCLUDE\CLOSE_CODE.H
C:\PROGRAM FILES (X86)\WINDOWS KITS\10\INCLUDE\10.0.18362.0\UCRT\STDDEF.H
C:\PROGRAM FILES (X86)\WINDOWS KITS\10\INCLUDE\10.0.18362.0\UCRT\CORECRT.H
C:\PROGRAM FILES (X86)\MICROSOFT VISUAL STUDIO\2019\COMMUNITY\VC\TOOLS\MSVC\14.22.27905\INCLUDE\VCRUNTIME.H
C:\PROGRAM FILES (X86)\MICROSOFT VISUAL STUDIO\2019\COMMUNITY\VC\TOOLS\MSVC\14.22.27905\INCLUDE\SAL.H
C:\PROGRAM FILES (X86)\MICROSOFT VISUAL STUDIO\2019\COMMUNITY\VC\TOOLS\MSVC\14.22.27905\INCLUDE\CONCURRENCYSAL.H
C:\PROGRAM FILES (X86)\MICROSOFT VISUAL STUDIO\2019\COMMUNITY\VC\TOOLS\MSVC\14.22.27905\INCLUDE\VADEFS.H
C:\PROGRAM FILES (X86)\MICROSOFT VISUAL STUDIO\2019\COMMUNITY\VC\TOOLS\MSVC\14.22.27905\INCLUDE\STDARG.H
C:\USERS\BINNIE\DOCUMENTS\SCHOOL\CLASSES\LAST SEMESTER\BINH'S GAM-415 REPO\GAM-415-BINH-PHAM\SDL2-2.0.10\INCLUDE\SDL_ASSERT.H
C:\USERS\BINNIE\DOCUMENTS\SCHOOL\CLASSES\LAST SEMESTER\BINH'S GAM-415 REPO\GAM-415-BINH-PHAM\SDL2-2.0.10\INCLUDE\SDL_ATOMIC.H
C:\USERS\BINNIE\DOCUMENTS\SCHOOL\CLASSES\LAST SEMESTER\BINH'S GAM-415 REPO\GAM-415-BINH-PHAM\SDL2-2.0.10\INCLUDE\SDL_AUDIO.H
C:\USERS\BINNIE\DOCUMENTS\SCHOOL\CLASSES\LAST SEMESTER\BINH'S GAM-415 REPO\GAM-415-BINH-PHAM\SDL2-2.0.10\INCLUDE\SDL_ERROR.H
C:\USERS\BINNIE\DOCUMENTS\SCHOOL\CLASSES\LAST SEMESTER\BINH'S GAM-415 REPO\GAM-415-BINH-PHAM\SDL2-2.0.10\INCLUDE\SDL_ENDIAN.H
C:\USERS\BINNIE\DOCUMENTS\SCHOOL\CLASSES\LAST SEMESTER\BINH'S GAM-415 REPO\GAM-415-BINH-PHAM\SDL2-2.0.10\INCLUDE\SDL_MUTEX.H
C:\USERS\BINNIE\DOCUMENTS\SCHOOL\CLASSES\LAST SEMESTER\BINH'S GAM-415 REPO\GAM-415-BINH-PHAM\SDL2-2.0.10\INCLUDE\SDL_THREAD.H
C:\PROGRAM FILES (X86)\WINDOWS KITS\10\INCLUDE\10.0.18362.0\UCRT\PROCESS.H
C:\PROGRAM FILES (X86)\WINDOWS KITS\10\INCLUDE\10.0.18362.0\UCRT\CORECRT_STARTUP.H
C:\PROGRAM FILES (X86)\WINDOWS KITS\10\INCLUDE\10.0.18362.0\UCRT\MATH.H
C:\PROGRAM FILES (X86)\WINDOWS KITS\10\INCLUDE\10.0.18362.0\UCRT\CORECRT_MATH.H
C:\PROGRAM FILES (X86)\MICROSOFT VISUAL STUDIO\2019\COMMUNITY\VC\TOOLS\MSVC\14.22.27905\INCLUDE\VCRUNTIME_STARTUP.H
C:\PROGRAM FILES (X86)\WINDOWS KITS\10\INCLUDE\10.0.18362.0\UCRT\CORECRT_WPROCESS.H
C:\USERS\BINNIE\DOCUMENTS\SCHOOL\CLASSES\LAST SEMESTER\BINH'S GAM-415 REPO\GAM-415-BINH-PHAM\SDL2-2.0.10\INCLUDE\SDL_RWOPS.H
C:\USERS\BINNIE\DOCUMENTS\SCHOOL\CLASSES\LAST SEMESTER\BINH'S GAM-415 REPO\GAM-415-BINH-PHAM\SDL2-2.0.10\INCLUDE\SDL_CLIPBOARD.H
C:\USERS\BINNIE\DOCUMENTS\SCHOOL\CLASSES\LAST SEMESTER\BINH'S GAM-415 REPO\GAM-415-BINH-PHAM\SDL2-2.0.10\INCLUDE\SDL_CPUINFO.H
C:\PROGRAM FILES (X86)\MICROSOFT VISUAL STUDIO\2019\COMMUNITY\VC\TOOLS\MSVC\14.22.27905\INCLUDE\INTRIN.H
C:\PROGRAM FILES (X86)\MICROSOFT VISUAL STUDIO\2019\COMMUNITY\VC\TOOLS\MSVC\14.22.27905\INCLUDE\INTRIN0.H
C:\PROGRAM FILES (X86)\MICROSOFT VISUAL STUDIO\2019\COMMUNITY\VC\TOOLS\MSVC\14.22.27905\INCLUDE\SETJMP.H
C:\PROGRAM FILES (X86)\MICROSOFT VISUAL STUDIO\2019\COMMUNITY\VC\TOOLS\MSVC\14.22.27905\INCLUDE\IMMINTRIN.H
C:\PROGRAM FILES (X86)\MICROSOFT VISUAL STUDIO\2019\COMMUNITY\VC\TOOLS\MSVC\14.22.27905\INCLUDE\WMMINTRIN.H
C:\PROGRAM FILES (X86)\MICROSOFT VISUAL STUDIO\2019\COMMUNITY\VC\TOOLS\MSVC\14.22.27905\INCLUDE\NMMINTRIN.H
C:\PROGRAM FILES (X86)\MICROSOFT VISUAL STUDIO\2019\COMMUNITY\VC\TOOLS\MSVC\14.22.27905\INCLUDE\SMMINTRIN.H
C:\PROGRAM FILES (X86)\MICROSOFT VISUAL STUDIO\2019\COMMUNITY\VC\TOOLS\MSVC\14.22.27905\INCLUDE\TMMINTRIN.H
C:\PROGRAM FILES (X86)\MICROSOFT VISUAL STUDIO\2019\COMMUNITY\VC\TOOLS\MSVC\14.22.27905\INCLUDE\PMMINTRIN.H
C:\PROGRAM FILES (X86)\MICROSOFT VISUAL STUDIO\2019\COMMUNITY\VC\TOOLS\MSVC\14.22.27905\INCLUDE\EMMINTRIN.H
C:\PROGRAM FILES (X86)\MICROSOFT VISUAL STUDIO\2019\COMMUNITY\VC\TOOLS\MSVC\14.22.27905\INCLUDE\XMMINTRIN.H
C:\PROGRAM FILES (X86)\MICROSOFT VISUAL STUDIO\2019\COMMUNITY\VC\TOOLS\MSVC\14.22.27905\INCLUDE\MMINTRIN.H
C:\PROGRAM FILES (X86)\WINDOWS KITS\10\INCLUDE\10.0.18362.0\UCRT\MALLOC.H
C:\PROGRAM FILES (X86)\WINDOWS KITS\10\INCLUDE\10.0.18362.0\UCRT\CORECRT_MALLOC.H
C:\PROGRAM FILES (X86)\MICROSOFT VISUAL STUDIO\2019\COMMUNITY\VC\TOOLS\MSVC\14.22.27905\INCLUDE\ZMMINTRIN.H
C:\PROGRAM FILES (X86)\MICROSOFT VISUAL STUDIO\2019\COMMUNITY\VC\TOOLS\MSVC\14.22.27905\INCLUDE\AMMINTRIN.H
C:\PROGRAM FILES (X86)\MICROSOFT VISUAL STUDIO\2019\COMMUNITY\VC\TOOLS\MSVC\14.22.27905\INCLUDE\MM3DNOW.H
C:\USERS\BINNIE\DOCUMENTS\SCHOOL\CLASSES\LAST SEMESTER\BINH'S GAM-415 REPO\GAM-415-BINH-PHAM\SDL2-2.0.10\INCLUDE\SDL_EVENTS.H
C:\USERS\BINNIE\DOCUMENTS\SCHOOL\CLASSES\LAST SEMESTER\BINH'S GAM-415 REPO\GAM-415-BINH-PHAM\SDL2-2.0.10\INCLUDE\SDL_VIDEO.H
C:\USERS\BINNIE\DOCUMENTS\SCHOOL\CLASSES\LAST SEMESTER\BINH'S GAM-415 REPO\GAM-415-BINH-PHAM\SDL2-2.0.10\INCLUDE\SDL_PIXELS.H
C:\USERS\BINNIE\DOCUMENTS\SCHOOL\CLASSES\LAST SEMESTER\BINH'S GAM-415 REPO\GAM-415-BINH-PHAM\SDL2-2.0.10\INCLUDE\SDL_RECT.H
C:\USERS\BINNIE\DOCUMENTS\SCHOOL\CLASSES\LAST SEMESTER\BINH'S GAM-415 REPO\GAM-415-BINH-PHAM\SDL2-2.0.10\INCLUDE\SDL_SURFACE.H
C:\USERS\BINNIE\DOCUMENTS\SCHOOL\CLASSES\LAST SEMESTER\BINH'S GAM-415 REPO\GAM-415-BINH-PHAM\SDL2-2.0.10\INCLUDE\SDL_BLENDMODE.H
C:\USERS\BINNIE\DOCUMENTS\SCHOOL\CLASSES\LAST SEMESTER\BINH'S GAM-415 REPO\GAM-415-BINH-PHAM\SDL2-2.0.10\INCLUDE\SDL_KEYBOARD.H
C:\USERS\BINNIE\DOCUMENTS\SCHOOL\CLASSES\LAST SEMESTER\BINH'S GAM-415 REPO\GAM-415-BINH-PHAM\SDL2-2.0.10\INCLUDE\SDL_KEYCODE.H
C:\USERS\BINNIE\DOCUMENTS\SCHOOL\CLASSES\LAST SEMESTER\BINH'S GAM-415 REPO\GAM-415-BINH-PHAM\SDL2-2.0.10\INCLUDE\SDL_SCANCODE.H
C:\USERS\BINNIE\DOCUMENTS\SCHOOL\CLASSES\LAST SEMESTER\BINH'S GAM-415 REPO\GAM-415-BINH-PHAM\SDL2-2.0.10\INCLUDE\SDL_MOUSE.H
C:\USERS\BINNIE\DOCUMENTS\SCHOOL\CLASSES\LAST SEMESTER\BINH'S GAM-415 REPO\GAM-415-BINH-PHAM\SDL2-2.0.10\INCLUDE\SDL_JOYSTICK.H
C:\USERS\BINNIE\DOCUMENTS\SCHOOL\CLASSES\LAST SEMESTER\BINH'S GAM-415 REPO\GAM-415-BINH-PHAM\SDL2-2.0.10\INCLUDE\SDL_GAMECONTROLLER.H
C:\USERS\BINNIE\DOCUMENTS\SCHOOL\CLASSES\LAST SEMESTER\BINH'S GAM-415 REPO\GAM-415-BINH-PHAM\SDL2-2.0.10\INCLUDE\SDL_QUIT.H
C:\USERS\BINNIE\DOCUMENTS\SCHOOL\CLASSES\LAST SEMESTER\BINH'S GAM-415 REPO\GAM-415-BINH-PHAM\SDL2-2.0.10\INCLUDE\SDL_GESTURE.H
C:\USERS\BINNIE\DOCUMENTS\SCHOOL\CLASSES\LAST SEMESTER\BINH'S GAM-415 REPO\GAM-415-BINH-PHAM\SDL2-2.0.10\INCLUDE\SDL_TOUCH.H
C:\USERS\BINNIE\DOCUMENTS\SCHOOL\CLASSES\LAST SEMESTER\BINH'S GAM-415 REPO\GAM-415-BINH-PHAM\SDL2-2.0.10\INCLUDE\SDL_FILESYSTEM.H
C:\USERS\BINNIE\DOCUMENTS\SCHOOL\CLASSES\LAST SEMESTER\BINH'S GAM-415 REPO\GAM-415-BINH-PHAM\SDL2-2.0.10\INCLUDE\SDL_HAPTIC.H
C:\USERS\BINNIE\DOCUMENTS\SCHOOL\CLASSES\LAST SEMESTER\BINH'S GAM-415 REPO\GAM-415-BINH-PHAM\SDL2-2.0.10\INCLUDE\SDL_HINTS.H
C:\USERS\BINNIE\DOCUMENTS\SCHOOL\CLASSES\LAST SEMESTER\BINH'S GAM-415 REPO\GAM-415-BINH-PHAM\SDL2-2.0.10\INCLUDE\SDL_LOADSO.H
C:\USERS\BINNIE\DOCUMENTS\SCHOOL\CLASSES\LAST SEMESTER\BINH'S GAM-415 REPO\GAM-415-BINH-PHAM\SDL2-2.0.10\INCLUDE\SDL_LOG.H
C:\USERS\BINNIE\DOCUMENTS\SCHOOL\CLASSES\LAST SEMESTER\BINH'S GAM-415 REPO\GAM-415-BINH-PHAM\SDL2-2.0.10\INCLUDE\SDL_MESSAGEBOX.H
C:\USERS\BINNIE\DOCUMENTS\SCHOOL\CLASSES\LAST SEMESTER\BINH'S GAM-415 REPO\GAM-415-BINH-PHAM\SDL2-2.0.10\INCLUDE\SDL_POWER.H
C:\USERS\BINNIE\DOCUMENTS\SCHOOL\CLASSES\LAST SEMESTER\BINH'S GAM-415 REPO\GAM-415-BINH-PHAM\SDL2-2.0.10\INCLUDE\SDL_RENDER.H
C:\USERS\BINNIE\DOCUMENTS\SCHOOL\CLASSES\LAST SEMESTER\BINH'S GAM-415 REPO\GAM-415-BINH-PHAM\SDL2-2.0.10\INCLUDE\SDL_SENSOR.H
C:\USERS\BINNIE\DOCUMENTS\SCHOOL\CLASSES\LAST SEMESTER\BINH'S GAM-415 REPO\GAM-415-BINH-PHAM\SDL2-2.0.10\INCLUDE\SDL_SHAPE.H
C:\USERS\BINNIE\DOCUMENTS\SCHOOL\CLASSES\LAST SEMESTER\BINH'S GAM-415 REPO\GAM-415-BINH-PHAM\SDL2-2.0.10\INCLUDE\SDL_SYSTEM.H
C:\USERS\BINNIE\DOCUMENTS\SCHOOL\CLASSES\LAST SEMESTER\BINH'S GAM-415 REPO\GAM-415-BINH-PHAM\SDL2-2.0.10\INCLUDE\SDL_TIMER.H
C:\USERS\BINNIE\DOCUMENTS\SCHOOL\CLASSES\LAST SEMESTER\BINH'S GAM-415 REPO\GAM-415-BINH-PHAM\SDL2-2.0.10\INCLUDE\SDL_VERSION.H
C:\PROGRAM FILES (X86)\MICROSOFT VISUAL STUDIO\2019\COMMUNITY\VC\TOOLS\MSVC\14.22.27905\INCLUDE\FUNCTIONAL
C:\PROGRAM FILES (X86)\MICROSOFT VISUAL STUDIO\2019\COMMUNITY\VC\TOOLS\MSVC\14.22.27905\INCLUDE\EXCEPTION
C:\PROGRAM FILES (X86)\MICROSOFT VISUAL STUDIO\2019\COMMUNITY\VC\TOOLS\MSVC\14.22.27905\INCLUDE\YVALS.H
C:\PROGRAM FILES (X86)\MICROSOFT VISUAL STUDIO\2019\COMMUNITY\VC\TOOLS\MSVC\14.22.27905\INCLUDE\YVALS_CORE.H
C:\PROGRAM FILES (X86)\MICROSOFT VISUAL STUDIO\2019\COMMUNITY\VC\TOOLS\MSVC\14.22.27905\INCLUDE\CRTDEFS.H
C:\PROGRAM FILES (X86)\MICROSOFT VISUAL STUDIO\2019\COMMUNITY\VC\TOOLS\MSVC\14.22.27905\INCLUDE\XKEYCHECK.H
C:\PROGRAM FILES (X86)\WINDOWS KITS\10\INCLUDE\10.0.18362.0\UCRT\CRTDBG.H
C:\PROGRAM FILES (X86)\MICROSOFT VISUAL STUDIO\2019\COMMUNITY\VC\TOOLS\MSVC\14.22.27905\INCLUDE\VCRUNTIME_NEW_DEBUG.H
C:\PROGRAM FILES (X86)\MICROSOFT VISUAL STUDIO\2019\COMMUNITY\VC\TOOLS\MSVC\14.22.27905\INCLUDE\VCRUNTIME_NEW.H
C:\PROGRAM FILES (X86)\MICROSOFT VISUAL STUDIO\2019\COMMUNITY\VC\TOOLS\MSVC\14.22.27905\INCLUDE\USE_ANSI.H
C:\PROGRAM FILES (X86)\MICROSOFT VISUAL STUDIO\2019\COMMUNITY\VC\TOOLS\MSVC\14.22.27905\INCLUDE\TYPE_TRAITS
C:\PROGRAM FILES (X86)\MICROSOFT VISUAL STUDIO\2019\COMMUNITY\VC\TOOLS\MSVC\14.22.27905\INCLUDE\XSTDDEF
C:\PROGRAM FILES (X86)\MICROSOFT VISUAL STUDIO\2019\COMMUNITY\VC\TOOLS\MSVC\14.22.27905\INCLUDE\CSTDDEF
C:\PROGRAM FILES (X86)\MICROSOFT VISUAL STUDIO\2019\COMMUNITY\VC\TOOLS\MSVC\14.22.27905\INCLUDE\XTR1COMMON
C:\PROGRAM FILES (X86)\MICROSOFT VISUAL STUDIO\2019\COMMUNITY\VC\TOOLS\MSVC\14.22.27905\INCLUDE\CSTDLIB
C:\PROGRAM FILES (X86)\WINDOWS KITS\10\INCLUDE\10.0.18362.0\UCRT\STDLIB.H
C:\PROGRAM FILES (X86)\WINDOWS KITS\10\INCLUDE\10.0.18362.0\UCRT\CORECRT_SEARCH.H
C:\PROGRAM FILES (X86)\WINDOWS KITS\10\INCLUDE\10.0.18362.0\UCRT\CORECRT_WSTDLIB.H
C:\PROGRAM FILES (X86)\MICROSOFT VISUAL STUDIO\2019\COMMUNITY\VC\TOOLS\MSVC\14.22.27905\INCLUDE\LIMITS.H
C:\PROGRAM FILES (X86)\MICROSOFT VISUAL STUDIO\2019\COMMUNITY\VC\TOOLS\MSVC\14.22.27905\INCLUDE\INITIALIZER_LIST
C:\PROGRAM FILES (X86)\MICROSOFT VISUAL STUDIO\2019\COMMUNITY\VC\TOOLS\MSVC\14.22.27905\INCLUDE\VCRUNTIME_EXCEPTION.H
C:\PROGRAM FILES (X86)\MICROSOFT VISUAL STUDIO\2019\COMMUNITY\VC\TOOLS\MSVC\14.22.27905\INCLUDE\EH.H
C:\PROGRAM FILES (X86)\WINDOWS KITS\10\INCLUDE\10.0.18362.0\UCRT\CORECRT_TERMINATE.H
C:\PROGRAM FILES (X86)\MICROSOFT VISUAL STUDIO\2019\COMMUNITY\VC\TOOLS\MSVC\14.22.27905\INCLUDE\TUPLE
C:\PROGRAM FILES (X86)\MICROSOFT VISUAL STUDIO\2019\COMMUNITY\VC\TOOLS\MSVC\14.22.27905\INCLUDE\NEW
C:\PROGRAM FILES (X86)\MICROSOFT VISUAL STUDIO\2019\COMMUNITY\VC\TOOLS\MSVC\14.22.27905\INCLUDE\XUTILITY
C:\PROGRAM FILES (X86)\MICROSOFT VISUAL STUDIO\2019\COMMUNITY\VC\TOOLS\MSVC\14.22.27905\INCLUDE\CLIMITS
C:\PROGRAM FILES (X86)\MICROSOFT VISUAL STUDIO\2019\COMMUNITY\VC\TOOLS\MSVC\14.22.27905\INCLUDE\CSTRING
C:\PROGRAM FILES (X86)\WINDOWS KITS\10\INCLUDE\10.0.18362.0\UCRT\STRING.H
C:\PROGRAM FILES (X86)\WINDOWS KITS\10\INCLUDE\10.0.18362.0\UCRT\CORECRT_MEMORY.H
C:\PROGRAM FILES (X86)\WINDOWS KITS\10\INCLUDE\10.0.18362.0\UCRT\CORECRT_MEMCPY_S.H
C:\PROGRAM FILES (X86)\WINDOWS KITS\10\INCLUDE\10.0.18362.0\UCRT\ERRNO.H
C:\PROGRAM FILES (X86)\MICROSOFT VISUAL STUDIO\2019\COMMUNITY\VC\TOOLS\MSVC\14.22.27905\INCLUDE\VCRUNTIME_STRING.H
C:\PROGRAM FILES (X86)\WINDOWS KITS\10\INCLUDE\10.0.18362.0\UCRT\CORECRT_WSTRING.H
C:\PROGRAM FILES (X86)\MICROSOFT VISUAL STUDIO\2019\COMMUNITY\VC\TOOLS\MSVC\14.22.27905\INCLUDE\UTILITY
C:\PROGRAM FILES (X86)\MICROSOFT VISUAL STUDIO\2019\COMMUNITY\VC\TOOLS\MSVC\14.22.27905\INCLUDE\TYPEINFO
C:\PROGRAM FILES (X86)\MICROSOFT VISUAL STUDIO\2019\COMMUNITY\VC\TOOLS\MSVC\14.22.27905\INCLUDE\VCRUNTIME_TYPEINFO.H
C:\PROGRAM FILES (X86)\MICROSOFT VISUAL STUDIO\2019\COMMUNITY\VC\TOOLS\MSVC\14.22.27905\INCLUDE\XMEMORY
C:\PROGRAM FILES (X86)\MICROSOFT VISUAL STUDIO\2019\COMMUNITY\VC\TOOLS\MSVC\14.22.27905\INCLUDE\CSTDINT
C:\PROGRAM FILES (X86)\MICROSOFT VISUAL STUDIO\2019\COMMUNITY\VC\TOOLS\MSVC\14.22.27905\INCLUDE\STDINT.H
C:\PROGRAM FILES (X86)\MICROSOFT VISUAL STUDIO\2019\COMMUNITY\VC\TOOLS\MSVC\14.22.27905\INCLUDE\LIMITS
C:\PROGRAM FILES (X86)\MICROSOFT VISUAL STUDIO\2019\COMMUNITY\VC\TOOLS\MSVC\14.22.27905\INCLUDE\CFLOAT
C:\PROGRAM FILES (X86)\WINDOWS KITS\10\INCLUDE\10.0.18362.0\UCRT\FLOAT.H
C:\PROGRAM FILES (X86)\MICROSOFT VISUAL STUDIO\2019\COMMUNITY\VC\TOOLS\MSVC\14.22.27905\INCLUDE\CWCHAR
C:\PROGRAM FILES (X86)\MICROSOFT VISUAL STUDIO\2019\COMMUNITY\VC\TOOLS\MSVC\14.22.27905\INCLUDE\CSTDIO
C:\PROGRAM FILES (X86)\WINDOWS KITS\10\INCLUDE\10.0.18362.0\UCRT\STDIO.H
C:\PROGRAM FILES (X86)\WINDOWS KITS\10\INCLUDE\10.0.18362.0\UCRT\CORECRT_WSTDIO.H
C:\PROGRAM FILES (X86)\WINDOWS KITS\10\INCLUDE\10.0.18362.0\UCRT\CORECRT_STDIO_CONFIG.H
C:\PROGRAM FILES (X86)\WINDOWS KITS\10\INCLUDE\10.0.18362.0\UCRT\WCHAR.H
C:\PROGRAM FILES (X86)\WINDOWS KITS\10\INCLUDE\10.0.18362.0\UCRT\CORECRT_WCONIO.H
C:\PROGRAM FILES (X86)\WINDOWS KITS\10\INCLUDE\10.0.18362.0\UCRT\CORECRT_WCTYPE.H
C:\PROGRAM FILES (X86)\WINDOWS KITS\10\INCLUDE\10.0.18362.0\UCRT\CORECRT_WDIRECT.H
C:\PROGRAM FILES (X86)\WINDOWS KITS\10\INCLUDE\10.0.18362.0\UCRT\CORECRT_WIO.H
C:\PROGRAM FILES (X86)\WINDOWS KITS\10\INCLUDE\10.0.18362.0\UCRT\CORECRT_SHARE.H
C:\PROGRAM FILES (X86)\WINDOWS KITS\10\INCLUDE\10.0.18362.0\UCRT\CORECRT_WTIME.H
C:\PROGRAM FILES (X86)\WINDOWS KITS\10\INCLUDE\10.0.18362.0\UCRT\SYS\STAT.H
C:\PROGRAM FILES (X86)\WINDOWS KITS\10\INCLUDE\10.0.18362.0\UCRT\SYS\TYPES.H
C:\PROGRAM FILES (X86)\MICROSOFT VISUAL STUDIO\2019\COMMUNITY\VC\TOOLS\MSVC\14.22.27905\INCLUDE\XATOMIC.H
C:\USERS\BINNIE\DOCUMENTS\SCHOOL\CLASSES\LAST SEMESTER\BINH'S GAM-415 REPO\GAM-415-BINH-PHAM\SDL SETUP\AUDIOGENERATOR\AUDIOBUFFER.H
^C:\USERS\BINNIE\DOCUMENTS\SCHOOL\CLASSES\LAST SEMESTER\BINH'S GAM-415 REPO\GAM-415-BINH-PHAM\SDL SETUP\AUDIOGENERATOR\MAIN.CPP
C:\PROGRAM FILES (X86)\MICROSOFT VISUAL STUDIO\2019\COMMUNITY\VC\TOOLS\MSVC\14.22.27905\INCLUDE\IOSTREAM
C:\PROGRAM FILES (X86)\MICROSOFT VISUAL STUDIO\2019\COMMUNITY\VC\TOOLS\MSVC\14.22.27905\INCLUDE\ISTREAM
C:\PROGRAM FILES (X86)\MICROSOFT VISUAL STUDIO\2019\COMMUNITY\VC\TOOLS\MSVC\14.22.27905\INCLUDE\OSTREAM
C:\PROGRAM FILES (X86)\MICROSOFT VISUAL STUDIO\2019\COMMUNITY\VC\TOOLS\MSVC\14.22.27905\INCLUDE\IOS
C:\PROGRAM FILES (X86)\MICROSOFT VISUAL STUDIO\2019\COMMUNITY\VC\TOOLS\MSVC\14.22.27905\INCLUDE\XLOCNUM
C:\PROGRAM FILES (X86)\MICROSOFT VISUAL STUDIO\2019\COMMUNITY\VC\TOOLS\MSVC\14.22.27905\INCLUDE\CLIMITS
C:\PROGRAM FILES (X86)\MICROSOFT VISUAL STUDIO\2019\COMMUNITY\VC\TOOLS\MSVC\14.22.27905\INCLUDE\YVALS_CORE.H
C:\PROGRAM FILES (X86)\MICROSOFT VISUAL STUDIO\2019\COMMUNITY\VC\TOOLS\MSVC\14.22.27905\INCLUDE\CRTDEFS.H
C:\PROGRAM FILES (X86)\MICROSOFT VISUAL STUDIO\2019\COMMUNITY\VC\TOOLS\MSVC\14.22.27905\INCLUDE\VCRUNTIME.H
C:\PROGRAM FILES (X86)\MICROSOFT VISUAL STUDIO\2019\COMMUNITY\VC\TOOLS\MSVC\14.22.27905\INCLUDE\SAL.H
C:\PROGRAM FILES (X86)\MICROSOFT VISUAL STUDIO\2019\COMMUNITY\VC\TOOLS\MSVC\14.22.27905\INCLUDE\CONCURRENCYSAL.H
C:\PROGRAM FILES (X86)\MICROSOFT VISUAL STUDIO\2019\COMMUNITY\VC\TOOLS\MSVC\14.22.27905\INCLUDE\VADEFS.H
C:\PROGRAM FILES (X86)\WINDOWS KITS\10\INCLUDE\10.0.18362.0\UCRT\CORECRT.H
C:\PROGRAM FILES (X86)\MICROSOFT VISUAL STUDIO\2019\COMMUNITY\VC\TOOLS\MSVC\14.22.27905\INCLUDE\XKEYCHECK.H
C:\PROGRAM FILES (X86)\MICROSOFT VISUAL STUDIO\2019\COMMUNITY\VC\TOOLS\MSVC\14.22.27905\INCLUDE\LIMITS.H
C:\PROGRAM FILES (X86)\MICROSOFT VISUAL STUDIO\2019\COMMUNITY\VC\TOOLS\MSVC\14.22.27905\INCLUDE\CMATH
C:\PROGRAM FILES (X86)\MICROSOFT VISUAL STUDIO\2019\COMMUNITY\VC\TOOLS\MSVC\14.22.27905\INCLUDE\YVALS.H
C:\PROGRAM FILES (X86)\WINDOWS KITS\10\INCLUDE\10.0.18362.0\UCRT\CRTDBG.H
C:\PROGRAM FILES (X86)\MICROSOFT VISUAL STUDIO\2019\COMMUNITY\VC\TOOLS\MSVC\14.22.27905\INCLUDE\VCRUNTIME_NEW_DEBUG.H
C:\PROGRAM FILES (X86)\MICROSOFT VISUAL STUDIO\2019\COMMUNITY\VC\TOOLS\MSVC\14.22.27905\INCLUDE\VCRUNTIME_NEW.H
C:\PROGRAM FILES (X86)\MICROSOFT VISUAL STUDIO\2019\COMMUNITY\VC\TOOLS\MSVC\14.22.27905\INCLUDE\USE_ANSI.H
C:\PROGRAM FILES (X86)\MICROSOFT VISUAL STUDIO\2019\COMMUNITY\VC\TOOLS\MSVC\14.22.27905\INCLUDE\CSTDLIB
C:\PROGRAM FILES (X86)\WINDOWS KITS\10\INCLUDE\10.0.18362.0\UCRT\MATH.H
C:\PROGRAM FILES (X86)\WINDOWS KITS\10\INCLUDE\10.0.18362.0\UCRT\CORECRT_MATH.H
C:\PROGRAM FILES (X86)\WINDOWS KITS\10\INCLUDE\10.0.18362.0\UCRT\STDLIB.H
C:\PROGRAM FILES (X86)\WINDOWS KITS\10\INCLUDE\10.0.18362.0\UCRT\CORECRT_MALLOC.H
C:\PROGRAM FILES (X86)\WINDOWS KITS\10\INCLUDE\10.0.18362.0\UCRT\CORECRT_SEARCH.H
C:\PROGRAM FILES (X86)\WINDOWS KITS\10\INCLUDE\10.0.18362.0\UCRT\STDDEF.H
C:\PROGRAM FILES (X86)\WINDOWS KITS\10\INCLUDE\10.0.18362.0\UCRT\CORECRT_WSTDLIB.H
C:\PROGRAM FILES (X86)\MICROSOFT VISUAL STUDIO\2019\COMMUNITY\VC\TOOLS\MSVC\14.22.27905\INCLUDE\XTGMATH.H
C:\PROGRAM FILES (X86)\MICROSOFT VISUAL STUDIO\2019\COMMUNITY\VC\TOOLS\MSVC\14.22.27905\INCLUDE\XTR1COMMON
C:\PROGRAM FILES (X86)\MICROSOFT VISUAL STUDIO\2019\COMMUNITY\VC\TOOLS\MSVC\14.22.27905\INCLUDE\CSTDIO
C:\PROGRAM FILES (X86)\WINDOWS KITS\10\INCLUDE\10.0.18362.0\UCRT\STDIO.H
C:\PROGRAM FILES (X86)\WINDOWS KITS\10\INCLUDE\10.0.18362.0\UCRT\CORECRT_WSTDIO.H
C:\PROGRAM FILES (X86)\WINDOWS KITS\10\INCLUDE\10.0.18362.0\UCRT\CORECRT_STDIO_CONFIG.H
C:\PROGRAM FILES (X86)\MICROSOFT VISUAL STUDIO\2019\COMMUNITY\VC\TOOLS\MSVC\14.22.27905\INCLUDE\STREAMBUF
C:\PROGRAM FILES (X86)\MICROSOFT VISUAL STUDIO\2019\COMMUNITY\VC\TOOLS\MSVC\14.22.27905\INCLUDE\XIOSBASE
C:\PROGRAM FILES (X86)\WINDOWS KITS\10\INCLUDE\10.0.18362.0\UCRT\SHARE.H
C:\PROGRAM FILES (X86)\WINDOWS KITS\10\INCLUDE\10.0.18362.0\UCRT\CORECRT_SHARE.H
C:\PROGRAM FILES (X86)\MICROSOFT VISUAL STUDIO\2019\COMMUNITY\VC\TOOLS\MSVC\14.22.27905\INCLUDE\SYSTEM_ERROR
C:\PROGRAM FILES (X86)\MICROSOFT VISUAL STUDIO\2019\COMMUNITY\VC\TOOLS\MSVC\14.22.27905\INCLUDE\CERRNO
C:\PROGRAM FILES (X86)\WINDOWS KITS\10\INCLUDE\10.0.18362.0\UCRT\ERRNO.H
C:\PROGRAM FILES (X86)\MICROSOFT VISUAL STUDIO\2019\COMMUNITY\VC\TOOLS\MSVC\14.22.27905\INCLUDE\STDEXCEPT
C:\PROGRAM FILES (X86)\MICROSOFT VISUAL STUDIO\2019\COMMUNITY\VC\TOOLS\MSVC\14.22.27905\INCLUDE\EXCEPTION
C:\PROGRAM FILES (X86)\MICROSOFT VISUAL STUDIO\2019\COMMUNITY\VC\TOOLS\MSVC\14.22.27905\INCLUDE\TYPE_TRAITS
C:\PROGRAM FILES (X86)\MICROSOFT VISUAL STUDIO\2019\COMMUNITY\VC\TOOLS\MSVC\14.22.27905\INCLUDE\XSTDDEF
C:\PROGRAM FILES (X86)\MICROSOFT VISUAL STUDIO\2019\COMMUNITY\VC\TOOLS\MSVC\14.22.27905\INCLUDE\CSTDDEF
C:\PROGRAM FILES (X86)\MICROSOFT VISUAL STUDIO\2019\COMMUNITY\VC\TOOLS\MSVC\14.22.27905\INCLUDE\INITIALIZER_LIST
C:\PROGRAM FILES (X86)\WINDOWS KITS\10\INCLUDE\10.0.18362.0\UCRT\MALLOC.H
C:\PROGRAM FILES (X86)\MICROSOFT VISUAL STUDIO\2019\COMMUNITY\VC\TOOLS\MSVC\14.22.27905\INCLUDE\VCRUNTIME_EXCEPTION.H
C:\PROGRAM FILES (X86)\MICROSOFT VISUAL STUDIO\2019\COMMUNITY\VC\TOOLS\MSVC\14.22.27905\INCLUDE\EH.H
C:\PROGRAM FILES (X86)\WINDOWS KITS\10\INCLUDE\10.0.18362.0\UCRT\CORECRT_TERMINATE.H
C:\PROGRAM FILES (X86)\MICROSOFT VISUAL STUDIO\2019\COMMUNITY\VC\TOOLS\MSVC\14.22.27905\INCLUDE\XSTRING
C:\PROGRAM FILES (X86)\MICROSOFT VISUAL STUDIO\2019\COMMUNITY\VC\TOOLS\MSVC\14.22.27905\INCLUDE\IOSFWD
C:\PROGRAM FILES (X86)\MICROSOFT VISUAL STUDIO\2019\COMMUNITY\VC\TOOLS\MSVC\14.22.27905\INCLUDE\CSTRING
C:\PROGRAM FILES (X86)\WINDOWS KITS\10\INCLUDE\10.0.18362.0\UCRT\STRING.H
C:\PROGRAM FILES (X86)\WINDOWS KITS\10\INCLUDE\10.0.18362.0\UCRT\CORECRT_MEMORY.H
C:\PROGRAM FILES (X86)\WINDOWS KITS\10\INCLUDE\10.0.18362.0\UCRT\CORECRT_MEMCPY_S.H
C:\PROGRAM FILES (X86)\MICROSOFT VISUAL STUDIO\2019\COMMUNITY\VC\TOOLS\MSVC\14.22.27905\INCLUDE\VCRUNTIME_STRING.H
C:\PROGRAM FILES (X86)\WINDOWS KITS\10\INCLUDE\10.0.18362.0\UCRT\CORECRT_WSTRING.H
C:\PROGRAM FILES (X86)\MICROSOFT VISUAL STUDIO\2019\COMMUNITY\VC\TOOLS\MSVC\14.22.27905\INCLUDE\CWCHAR
C:\PROGRAM FILES (X86)\WINDOWS KITS\10\INCLUDE\10.0.18362.0\UCRT\WCHAR.H
C:\PROGRAM FILES (X86)\WINDOWS KITS\10\INCLUDE\10.0.18362.0\UCRT\CORECRT_WCONIO.H
C:\PROGRAM FILES (X86)\WINDOWS KITS\10\INCLUDE\10.0.18362.0\UCRT\CORECRT_WCTYPE.H
C:\PROGRAM FILES (X86)\WINDOWS KITS\10\INCLUDE\10.0.18362.0\UCRT\CORECRT_WDIRECT.H
C:\PROGRAM FILES (X86)\WINDOWS KITS\10\INCLUDE\10.0.18362.0\UCRT\CORECRT_WIO.H
C:\PROGRAM FILES (X86)\WINDOWS KITS\10\INCLUDE\10.0.18362.0\UCRT\CORECRT_WPROCESS.H
C:\PROGRAM FILES (X86)\WINDOWS KITS\10\INCLUDE\10.0.18362.0\UCRT\CORECRT_WTIME.H
C:\PROGRAM FILES (X86)\WINDOWS KITS\10\INCLUDE\10.0.18362.0\UCRT\SYS\STAT.H
C:\PROGRAM FILES (X86)\WINDOWS KITS\10\INCLUDE\10.0.18362.0\UCRT\SYS\TYPES.H
C:\PROGRAM FILES (X86)\MICROSOFT VISUAL STUDIO\2019\COMMUNITY\VC\TOOLS\MSVC\14.22.27905\INCLUDE\XMEMORY
C:\PROGRAM FILES (X86)\MICROSOFT VISUAL STUDIO\2019\COMMUNITY\VC\TOOLS\MSVC\14.22.27905\INCLUDE\CSTDINT
C:\PROGRAM FILES (X86)\MICROSOFT VISUAL STUDIO\2019\COMMUNITY\VC\TOOLS\MSVC\14.22.27905\INCLUDE\STDINT.H
C:\PROGRAM FILES (X86)\MICROSOFT VISUAL STUDIO\2019\COMMUNITY\VC\TOOLS\MSVC\14.22.27905\INCLUDE\LIMITS
C:\PROGRAM FILES (X86)\MICROSOFT VISUAL STUDIO\2019\COMMUNITY\VC\TOOLS\MSVC\14.22.27905\INCLUDE\CFLOAT
C:\PROGRAM FILES (X86)\WINDOWS KITS\10\INCLUDE\10.0.18362.0\UCRT\FLOAT.H
C:\PROGRAM FILES (X86)\MICROSOFT VISUAL STUDIO\2019\COMMUNITY\VC\TOOLS\MSVC\14.22.27905\INCLUDE\NEW
C:\PROGRAM FILES (X86)\MICROSOFT VISUAL STUDIO\2019\COMMUNITY\VC\TOOLS\MSVC\14.22.27905\INCLUDE\XATOMIC.H
C:\PROGRAM FILES (X86)\MICROSOFT VISUAL STUDIO\2019\COMMUNITY\VC\TOOLS\MSVC\14.22.27905\INCLUDE\INTRIN0.H
C:\PROGRAM FILES (X86)\MICROSOFT VISUAL STUDIO\2019\COMMUNITY\VC\TOOLS\MSVC\14.22.27905\INCLUDE\XUTILITY
C:\PROGRAM FILES (X86)\MICROSOFT VISUAL STUDIO\2019\COMMUNITY\VC\TOOLS\MSVC\14.22.27905\INCLUDE\UTILITY
C:\PROGRAM FILES (X86)\MICROSOFT VISUAL STUDIO\2019\COMMUNITY\VC\TOOLS\MSVC\14.22.27905\INCLUDE\XCALL_ONCE.H
C:\PROGRAM FILES (X86)\MICROSOFT VISUAL STUDIO\2019\COMMUNITY\VC\TOOLS\MSVC\14.22.27905\INCLUDE\XERRC.H
C:\PROGRAM FILES (X86)\MICROSOFT VISUAL STUDIO\2019\COMMUNITY\VC\TOOLS\MSVC\14.22.27905\INCLUDE\XLOCALE
C:\PROGRAM FILES (X86)\MICROSOFT VISUAL STUDIO\2019\COMMUNITY\VC\TOOLS\MSVC\14.22.27905\INCLUDE\MEMORY
C:\PROGRAM FILES (X86)\MICROSOFT VISUAL STUDIO\2019\COMMUNITY\VC\TOOLS\MSVC\14.22.27905\INCLUDE\TYPEINFO
C:\PROGRAM FILES (X86)\MICROSOFT VISUAL STUDIO\2019\COMMUNITY\VC\TOOLS\MSVC\14.22.27905\INCLUDE\VCRUNTIME_TYPEINFO.H
C:\PROGRAM FILES (X86)\MICROSOFT VISUAL STUDIO\2019\COMMUNITY\VC\TOOLS\MSVC\14.22.27905\INCLUDE\XFACET
C:\PROGRAM FILES (X86)\MICROSOFT VISUAL STUDIO\2019\COMMUNITY\VC\TOOLS\MSVC\14.22.27905\INCLUDE\XLOCINFO
C:\PROGRAM FILES (X86)\MICROSOFT VISUAL STUDIO\2019\COMMUNITY\VC\TOOLS\MSVC\14.22.27905\INCLUDE\XLOCINFO.H
C:\PROGRAM FILES (X86)\WINDOWS KITS\10\INCLUDE\10.0.18362.0\UCRT\CTYPE.H
C:\PROGRAM FILES (X86)\WINDOWS KITS\10\INCLUDE\10.0.18362.0\UCRT\LOCALE.H
C:\PROGRAM FILES (X86)\MICROSOFT VISUAL STUDIO\2019\COMMUNITY\VC\TOOLS\MSVC\14.22.27905\INCLUDE\FUNCTIONAL
C:\PROGRAM FILES (X86)\MICROSOFT VISUAL STUDIO\2019\COMMUNITY\VC\TOOLS\MSVC\14.22.27905\INCLUDE\TUPLE
C:\USERS\BINNIE\DOCUMENTS\SCHOOL\CLASSES\LAST SEMESTER\BINH'S GAM-415 REPO\GAM-415-BINH-PHAM\SDL_GPU-VS2017-32\INCLUDE\SDL_GPU.H
C:\USERS\BINNIE\DOCUMENTS\SCHOOL\CLASSES\LAST SEMESTER\BINH'S GAM-415 REPO\GAM-415-BINH-PHAM\SDL2-2.0.10\INCLUDE\SDL.H
C:\USERS\BINNIE\DOCUMENTS\SCHOOL\CLASSES\LAST SEMESTER\BINH'S GAM-415 REPO\GAM-415-BINH-PHAM\SDL2-2.0.10\INCLUDE\SDL_MAIN.H
C:\USERS\BINNIE\DOCUMENTS\SCHOOL\CLASSES\LAST SEMESTER\BINH'S GAM-415 REPO\GAM-415-BINH-PHAM\SDL2-2.0.10\INCLUDE\SDL_STDINC.H
C:\USERS\BINNIE\DOCUMENTS\SCHOOL\CLASSES\LAST SEMESTER\BINH'S GAM-415 REPO\GAM-415-BINH-PHAM\SDL2-2.0.10\INCLUDE\SDL_CONFIG.H
C:\USERS\BINNIE\DOCUMENTS\SCHOOL\CLASSES\LAST SEMESTER\BINH'S GAM-415 REPO\GAM-415-BINH-PHAM\SDL2-2.0.10\INCLUDE\SDL_PLATFORM.H
C:\PROGRAM FILES (X86)\WINDOWS KITS\10\INCLUDE\10.0.18362.0\SHARED\WINAPIFAMILY.H
C:\PROGRAM FILES (X86)\WINDOWS KITS\10\INCLUDE\10.0.18362.0\SHARED\WINPACKAGEFAMILY.H
C:\USERS\BINNIE\DOCUMENTS\SCHOOL\CLASSES\LAST SEMESTER\BINH'S GAM-415 REPO\GAM-415-BINH-PHAM\SDL2-2.0.10\INCLUDE\BEGIN_CODE.H
C:\USERS\BINNIE\DOCUMENTS\SCHOOL\CLASSES\LAST SEMESTER\BINH'S GAM-415 REPO\GAM-415-BINH-PHAM\SDL2-2.0.10\INCLUDE\CLOSE_CODE.H
C:\PROGRAM FILES (X86)\MICROSOFT VISUAL STUDIO\2019\COMMUNITY\VC\TOOLS\MSVC\14.22.27905\INCLUDE\STDARG.H
C:\USERS\BINNIE\DOCUMENTS\SCHOOL\CLASSES\LAST SEMESTER\BINH'S GAM-415 REPO\GAM-415-BINH-PHAM\SDL2-2.0.10\INCLUDE\SDL_ASSERT.H
C:\USERS\BINNIE\DOCUMENTS\SCHOOL\CLASSES\LAST SEMESTER\BINH'S GAM-415 REPO\GAM-415-BINH-PHAM\SDL2-2.0.10\INCLUDE\SDL_ATOMIC.H
C:\USERS\BINNIE\DOCUMENTS\SCHOOL\CLASSES\LAST SEMESTER\BINH'S GAM-415 REPO\GAM-415-BINH-PHAM\SDL2-2.0.10\INCLUDE\SDL_AUDIO.H
C:\USERS\BINNIE\DOCUMENTS\SCHOOL\CLASSES\LAST SEMESTER\BINH'S GAM-415 REPO\GAM-415-BINH-PHAM\SDL2-2.0.10\INCLUDE\SDL_ERROR.H
C:\USERS\BINNIE\DOCUMENTS\SCHOOL\CLASSES\LAST SEMESTER\BINH'S GAM-415 REPO\GAM-415-BINH-PHAM\SDL2-2.0.10\INCLUDE\SDL_ENDIAN.H
C:\USERS\BINNIE\DOCUMENTS\SCHOOL\CLASSES\LAST SEMESTER\BINH'S GAM-415 REPO\GAM-415-BINH-PHAM\SDL2-2.0.10\INCLUDE\SDL_MUTEX.H
C:\USERS\BINNIE\DOCUMENTS\SCHOOL\CLASSES\LAST SEMESTER\BINH'S GAM-415 REPO\GAM-415-BINH-PHAM\SDL2-2.0.10\INCLUDE\SDL_THREAD.H
C:\PROGRAM FILES (X86)\WINDOWS KITS\10\INCLUDE\10.0.18362.0\UCRT\PROCESS.H
C:\PROGRAM FILES (X86)\WINDOWS KITS\10\INCLUDE\10.0.18362.0\UCRT\CORECRT_STARTUP.H
C:\PROGRAM FILES (X86)\MICROSOFT VISUAL STUDIO\2019\COMMUNITY\VC\TOOLS\MSVC\14.22.27905\INCLUDE\VCRUNTIME_STARTUP.H
C:\USERS\BINNIE\DOCUMENTS\SCHOOL\CLASSES\LAST SEMESTER\BINH'S GAM-415 REPO\GAM-415-BINH-PHAM\SDL2-2.0.10\INCLUDE\SDL_RWOPS.H
C:\USERS\BINNIE\DOCUMENTS\SCHOOL\CLASSES\LAST SEMESTER\BINH'S GAM-415 REPO\GAM-415-BINH-PHAM\SDL2-2.0.10\INCLUDE\SDL_CLIPBOARD.H
C:\USERS\BINNIE\DOCUMENTS\SCHOOL\CLASSES\LAST SEMESTER\BINH'S GAM-415 REPO\GAM-415-BINH-PHAM\SDL2-2.0.10\INCLUDE\SDL_CPUINFO.H
C:\PROGRAM FILES (X86)\MICROSOFT VISUAL STUDIO\2019\COMMUNITY\VC\TOOLS\MSVC\14.22.27905\INCLUDE\INTRIN.H
C:\PROGRAM FILES (X86)\MICROSOFT VISUAL STUDIO\2019\COMMUNITY\VC\TOOLS\MSVC\14.22.27905\INCLUDE\SETJMP.H
C:\PROGRAM FILES (X86)\MICROSOFT VISUAL STUDIO\2019\COMMUNITY\VC\TOOLS\MSVC\14.22.27905\INCLUDE\IMMINTRIN.H
C:\PROGRAM FILES (X86)\MICROSOFT VISUAL STUDIO\2019\COMMUNITY\VC\TOOLS\MSVC\14.22.27905\INCLUDE\WMMINTRIN.H
C:\PROGRAM FILES (X86)\MICROSOFT VISUAL STUDIO\2019\COMMUNITY\VC\TOOLS\MSVC\14.22.27905\INCLUDE\NMMINTRIN.H
C:\PROGRAM FILES (X86)\MICROSOFT VISUAL STUDIO\2019\COMMUNITY\VC\TOOLS\MSVC\14.22.27905\INCLUDE\SMMINTRIN.H
C:\PROGRAM FILES (X86)\MICROSOFT VISUAL STUDIO\2019\COMMUNITY\VC\TOOLS\MSVC\14.22.27905\INCLUDE\TMMINTRIN.H
C:\PROGRAM FILES (X86)\MICROSOFT VISUAL STUDIO\2019\COMMUNITY\VC\TOOLS\MSVC\14.22.27905\INCLUDE\PMMINTRIN.H
C:\PROGRAM FILES (X86)\MICROSOFT VISUAL STUDIO\2019\COMMUNITY\VC\TOOLS\MSVC\14.22.27905\INCLUDE\EMMINTRIN.H
C:\PROGRAM FILES (X86)\MICROSOFT VISUAL STUDIO\2019\COMMUNITY\VC\TOOLS\MSVC\14.22.27905\INCLUDE\XMMINTRIN.H
C:\PROGRAM FILES (X86)\MICROSOFT VISUAL STUDIO\2019\COMMUNITY\VC\TOOLS\MSVC\14.22.27905\INCLUDE\MMINTRIN.H
C:\PROGRAM FILES (X86)\MICROSOFT VISUAL STUDIO\2019\COMMUNITY\VC\TOOLS\MSVC\14.22.27905\INCLUDE\ZMMINTRIN.H
C:\PROGRAM FILES (X86)\MICROSOFT VISUAL STUDIO\2019\COMMUNITY\VC\TOOLS\MSVC\14.22.27905\INCLUDE\AMMINTRIN.H
C:\PROGRAM FILES (X86)\MICROSOFT VISUAL STUDIO\2019\COMMUNITY\VC\TOOLS\MSVC\14.22.27905\INCLUDE\MM3DNOW.H
C:\USERS\BINNIE\DOCUMENTS\SCHOOL\CLASSES\LAST SEMESTER\BINH'S GAM-415 REPO\GAM-415-BINH-PHAM\SDL2-2.0.10\INCLUDE\SDL_EVENTS.H
C:\USERS\BINNIE\DOCUMENTS\SCHOOL\CLASSES\LAST SEMESTER\BINH'S GAM-415 REPO\GAM-415-BINH-PHAM\SDL2-2.0.10\INCLUDE\SDL_VIDEO.H
C:\USERS\BINNIE\DOCUMENTS\SCHOOL\CLASSES\LAST SEMESTER\BINH'S GAM-415 REPO\GAM-415-BINH-PHAM\SDL2-2.0.10\INCLUDE\SDL_PIXELS.H
C:\USERS\BINNIE\DOCUMENTS\SCHOOL\CLASSES\LAST SEMESTER\BINH'S GAM-415 REPO\GAM-415-BINH-PHAM\SDL2-2.0.10\INCLUDE\SDL_RECT.H
C:\USERS\BINNIE\DOCUMENTS\SCHOOL\CLASSES\LAST SEMESTER\BINH'S GAM-415 REPO\GAM-415-BINH-PHAM\SDL2-2.0.10\INCLUDE\SDL_SURFACE.H
C:\USERS\BINNIE\DOCUMENTS\SCHOOL\CLASSES\LAST SEMESTER\BINH'S GAM-415 REPO\GAM-415-BINH-PHAM\SDL2-2.0.10\INCLUDE\SDL_BLENDMODE.H
C:\USERS\BINNIE\DOCUMENTS\SCHOOL\CLASSES\LAST SEMESTER\BINH'S GAM-415 REPO\GAM-415-BINH-PHAM\SDL2-2.0.10\INCLUDE\SDL_KEYBOARD.H
C:\USERS\BINNIE\DOCUMENTS\SCHOOL\CLASSES\LAST SEMESTER\BINH'S GAM-415 REPO\GAM-415-BINH-PHAM\SDL2-2.0.10\INCLUDE\SDL_KEYCODE.H
C:\USERS\BINNIE\DOCUMENTS\SCHOOL\CLASSES\LAST SEMESTER\BINH'S GAM-415 REPO\GAM-415-BINH-PHAM\SDL2-2.0.10\INCLUDE\SDL_SCANCODE.H
C:\USERS\BINNIE\DOCUMENTS\SCHOOL\CLASSES\LAST SEMESTER\BINH'S GAM-415 REPO\GAM-415-BINH-PHAM\SDL2-2.0.10\INCLUDE\SDL_MOUSE.H
C:\USERS\BINNIE\DOCUMENTS\SCHOOL\CLASSES\LAST SEMESTER\BINH'S GAM-415 REPO\GAM-415-BINH-PHAM\SDL2-2.0.10\INCLUDE\SDL_JOYSTICK.H
C:\USERS\BINNIE\DOCUMENTS\SCHOOL\CLASSES\LAST SEMESTER\BINH'S GAM-415 REPO\GAM-415-BINH-PHAM\SDL2-2.0.10\INCLUDE\SDL_GAMECONTROLLER.H
C:\USERS\BINNIE\DOCUMENTS\SCHOOL\CLASSES\LAST SEMESTER\BINH'S GAM-415 REPO\GAM-415-BINH-PHAM\SDL2-2.0.10\INCLUDE\SDL_QUIT.H
C:\USERS\BINNIE\DOCUMENTS\SCHOOL\CLASSES\LAST SEMESTER\BINH'S GAM-415 REPO\GAM-415-BINH-PHAM\SDL2-2.0.10\INCLUDE\SDL_GESTURE.H
C:\USERS\BINNIE\DOCUMENTS\SCHOOL\CLASSES\LAST SEMESTER\BINH'S GAM-415 REPO\GAM-415-BINH-PHAM\SDL2-2.0.10\INCLUDE\SDL_TOUCH.H
C:\USERS\BINNIE\DOCUMENTS\SCHOOL\CLASSES\LAST SEMESTER\BINH'S GAM-415 REPO\GAM-415-BINH-PHAM\SDL2-2.0.10\INCLUDE\SDL_FILESYSTEM.H
C:\USERS\BINNIE\DOCUMENTS\SCHOOL\CLASSES\LAST SEMESTER\BINH'S GAM-415 REPO\GAM-415-BINH-PHAM\SDL2-2.0.10\INCLUDE\SDL_HAPTIC.H
C:\USERS\BINNIE\DOCUMENTS\SCHOOL\CLASSES\LAST SEMESTER\BINH'S GAM-415 REPO\GAM-415-BINH-PHAM\SDL2-2.0.10\INCLUDE\SDL_HINTS.H
C:\USERS\BINNIE\DOCUMENTS\SCHOOL\CLASSES\LAST SEMESTER\BINH'S GAM-415 REPO\GAM-415-BINH-PHAM\SDL2-2.0.10\INCLUDE\SDL_LOADSO.H
C:\USERS\BINNIE\DOCUMENTS\SCHOOL\CLASSES\LAST SEMESTER\BINH'S GAM-415 REPO\GAM-415-BINH-PHAM\SDL2-2.0.10\INCLUDE\SDL_LOG.H
C:\USERS\BINNIE\DOCUMENTS\SCHOOL\CLASSES\LAST SEMESTER\BINH'S GAM-415 REPO\GAM-415-BINH-PHAM\SDL2-2.0.10\INCLUDE\SDL_MESSAGEBOX.H
C:\USERS\BINNIE\DOCUMENTS\SCHOOL\CLASSES\LAST SEMESTER\BINH'S GAM-415 REPO\GAM-415-BINH-PHAM\SDL2-2.0.10\INCLUDE\SDL_POWER.H
C:\USERS\BINNIE\DOCUMENTS\SCHOOL\CLASSES\LAST SEMESTER\BINH'S GAM-415 REPO\GAM-415-BINH-PHAM\SDL2-2.0.10\INCLUDE\SDL_RENDER.H
C:\USERS\BINNIE\DOCUMENTS\SCHOOL\CLASSES\LAST SEMESTER\BINH'S GAM-415 REPO\GAM-415-BINH-PHAM\SDL2-2.0.10\INCLUDE\SDL_SENSOR.H
C:\USERS\BINNIE\DOCUMENTS\SCHOOL\CLASSES\LAST SEMESTER\BINH'S GAM-415 REPO\GAM-415-BINH-PHAM\SDL2-2.0.10\INCLUDE\SDL_SHAPE.H
C:\USERS\BINNIE\DOCUMENTS\SCHOOL\CLASSES\LAST SEMESTER\BINH'S GAM-415 REPO\GAM-415-BINH-PHAM\SDL2-2.0.10\INCLUDE\SDL_SYSTEM.H
C:\USERS\BINNIE\DOCUMENTS\SCHOOL\CLASSES\LAST SEMESTER\BINH'S GAM-415 REPO\GAM-415-BINH-PHAM\SDL2-2.0.10\INCLUDE\SDL_TIMER.H
C:\USERS\BINNIE\DOCUMENTS\SCHOOL\CLASSES\LAST SEMESTER\BINH'S GAM-415 REPO\GAM-415-BINH-PHAM\SDL2-2.0.10\INCLUDE\SDL_VERSION.H
C:\PROGRAM FILES (X86)\MICROSOFT VISUAL STUDIO\2019\COMMUNITY\VC\TOOLS\MSVC\14.22.27905\INCLUDE\STDBOOL.H
C:\USERS\BINNIE\DOCUMENTS\SCHOOL\CLASSES\LAST SEMESTER\BINH'S GAM-415 REPO\GAM-415-BINH-PHAM\SDL SETUP\AUDIOGENERATOR\AUDIOBUFFER.H
