^C:\USERS\BINNIE\DOCUMENTS\SCHOOL\CLASSES\LAST SEMESTER\BINH'S GAM-415 REPO\GAM-415-BINH-PHAM\SDL SETUP\AUDIOGENERATOR\DEBUG\MAIN.OBJ|C:\USERS\BINNIE\DOCUMENTS\SCHOOL\CLASSES\LAST SEMESTER\BINH'S GAM-415 REPO\GAM-415-BINH-PHAM\SDL SETUP\AUDIOGENERATOR\DEBUG\SAMPLEGENERATORS.OBJ
C:\USERS\BINNIE\DOCUMENTS\SCHOOL\CLASSES\LAST SEMESTER\BINH'S GAM-415 REPO\GAM-415-BINH-PHAM\SDL2-2.0.10\LIB\X86\SDL2.LIB
C:\USERS\BINNIE\DOCUMENTS\SCHOOL\CLASSES\LAST SEMESTER\BINH'S GAM-415 REPO\GAM-415-BINH-PHAM\SDL2-2.0.10\LIB\X86\SDL2MAIN.LIB
C:\USERS\BINNIE\DOCUMENTS\SCHOOL\CLASSES\LAST SEMESTER\BINH'S GAM-415 REPO\GAM-415-BINH-PHAM\SDL_GPU-VS2017-32\LIB\SDL2_GPU.LIB
C:\PROGRAM FILES (X86)\WINDOWS KITS\10\LIB\10.0.18362.0\UM\X86\KERNEL32.LIB
C:\PROGRAM FILES (X86)\WINDOWS KITS\10\LIB\10.0.18362.0\UM\X86\USER32.LIB
C:\PROGRAM FILES (X86)\WINDOWS KITS\10\LIB\10.0.18362.0\UM\X86\GDI32.LIB
C:\PROGRAM FILES (X86)\WINDOWS KITS\10\LIB\10.0.18362.0\UM\X86\WINSPOOL.LIB
C:\PROGRAM FILES (X86)\WINDOWS KITS\10\LIB\10.0.18362.0\UM\X86\COMDLG32.LIB
C:\PROGRAM FILES (X86)\WINDOWS KITS\10\LIB\10.0.18362.0\UM\X86\ADVAPI32.LIB
C:\PROGRAM FILES (X86)\WINDOWS KITS\10\LIB\10.0.18362.0\UM\X86\SHELL32.LIB
C:\PROGRAM FILES (X86)\WINDOWS KITS\10\LIB\10.0.18362.0\UM\X86\OLE32.LIB
C:\PROGRAM FILES (X86)\WINDOWS KITS\10\LIB\10.0.18362.0\UM\X86\OLEAUT32.LIB
C:\PROGRAM FILES (X86)\WINDOWS KITS\10\LIB\10.0.18362.0\UM\X86\UUID.LIB
C:\PROGRAM FILES (X86)\WINDOWS KITS\10\LIB\10.0.18362.0\UM\X86\ODBC32.LIB
C:\PROGRAM FILES (X86)\WINDOWS KITS\10\LIB\10.0.18362.0\UM\X86\ODBCCP32.LIB
C:\USERS\BINNIE\DOCUMENTS\SCHOOL\CLASSES\LAST SEMESTER\BINH'S GAM-415 REPO\GAM-415-BINH-PHAM\SDL SETUP\AUDIOGENERATOR\DEBUG\MAIN.OBJ
C:\USERS\BINNIE\DOCUMENTS\SCHOOL\CLASSES\LAST SEMESTER\BINH'S GAM-415 REPO\GAM-415-BINH-PHAM\SDL SETUP\AUDIOGENERATOR\DEBUG\SAMPLEGENERATORS.OBJ
C:\WINDOWS\SYSTEM32\TZRES.DLL
C:\WINDOWS\GLOBALIZATION\SORTING\SORTDEFAULT.NLS
C:\PROGRAM FILES (X86)\MICROSOFT VISUAL STUDIO\2019\COMMUNITY\VC\TOOLS\MSVC\14.22.27905\LIB\X86\MSVCPRTD.LIB
C:\PROGRAM FILES (X86)\MICROSOFT VISUAL STUDIO\2019\COMMUNITY\VC\TOOLS\MSVC\14.22.27905\LIB\X86\MSVCRTD.LIB
C:\PROGRAM FILES (X86)\MICROSOFT VISUAL STUDIO\2019\COMMUNITY\VC\TOOLS\MSVC\14.22.27905\LIB\X86\OLDNAMES.LIB
C:\PROGRAM FILES (X86)\MICROSOFT VISUAL STUDIO\2019\COMMUNITY\VC\TOOLS\MSVC\14.22.27905\LIB\X86\VCRUNTIMED.LIB
C:\PROGRAM FILES (X86)\WINDOWS KITS\10\LIB\10.0.18362.0\UCRT\X86\UCRTD.LIB
